[gd_scene load_steps=9 format=2]

[ext_resource path="res://assets/models/fass.glb" type="PackedScene" id=1]

[sub_resource type="SpatialMaterial" id=1]

render_priority = 0
flags_transparent = false
flags_unshaded = false
flags_vertex_lighting = false
flags_no_depth_test = false
flags_use_point_size = false
flags_world_triplanar = false
flags_fixed_size = false
flags_albedo_tex_force_srgb = false
vertex_color_use_as_albedo = true
vertex_color_is_srgb = false
params_diffuse_mode = 0
params_specular_mode = 0
params_blend_mode = 0
params_cull_mode = 0
params_depth_draw_mode = 0
params_line_width = 1.0
params_point_size = 1.0
params_billboard_mode = 0
params_grow = false
params_use_alpha_scissor = false
albedo_color = Color( 1, 1, 1, 1 )
metallic = 0.0
metallic_specular = 0.5
metallic_texture_channel = 0
roughness = 0.0
roughness_texture_channel = 0
emission_enabled = true
emission = Color( 1, 0.351563, 0, 1 )
emission_energy = 0.1
emission_operator = 0
emission_on_uv2 = false
normal_enabled = false
rim_enabled = false
clearcoat_enabled = false
anisotropy_enabled = false
ao_enabled = false
depth_enabled = false
subsurf_scatter_enabled = false
transmission_enabled = false
refraction_enabled = false
detail_enabled = false
uv1_scale = Vector3( 1, 1, 1 )
uv1_offset = Vector3( 0, 0, 0 )
uv1_triplanar = false
uv1_triplanar_sharpness = 1.0
uv2_scale = Vector3( 1, 1, 1 )
uv2_offset = Vector3( 0, 0, 0 )
uv2_triplanar = false
uv2_triplanar_sharpness = 1.0
proximity_fade_enable = false
distance_fade_enable = false
_sections_unfolded = [ "Emission", "Vertex Color" ]

[sub_resource type="Gradient" id=2]

offsets = PoolRealArray( 0, 0, 9.27556e-039, 0.300633, 0.601266, 1 )
colors = PoolColorArray( 0.9375, 0.241699, 0, 1, 0.898438, 1, 0, 1, 1, 0, 0, 1, 1, 0.515625, 0, 1, 0.992188, 1, 0, 1, 0.620253, 0.620253, 0.620253, 1 )

[sub_resource type="GradientTexture" id=3]

flags = 4
gradient = SubResource( 2 )
width = 2049
_sections_unfolded = [ "Resource" ]

[sub_resource type="Curve" id=4]

min_value = 0.0
max_value = 1.0
bake_resolution = 100
_data = [ Vector2( 0, 0 ), 0.0, 0.0, 0, 0, Vector2( 0.453839, 0.0917969 ), 0.0, 0.0, 0, 0, Vector2( 1, 0 ), 0.0, 0.0, 0, 0 ]

[sub_resource type="CurveTexture" id=5]

flags = 4
width = 2048
curve = SubResource( 4 )

[sub_resource type="ParticlesMaterial" id=6]

render_priority = 0
trail_divisor = 1
emission_shape = 0
flag_align_y = false
flag_rotate_y = false
flag_disable_z = false
spread = 100.0
flatness = 0.0
gravity = Vector3( 0, 3, 0 )
initial_velocity = 0.7
initial_velocity_random = 1.0
angular_velocity = 0.0
angular_velocity_random = 0.0
linear_accel = 0.0
linear_accel_random = 0.0
radial_accel = 0.0
radial_accel_random = 0.0
tangential_accel = 0.0
tangential_accel_random = 0.0
damping = 0.0
damping_random = 0.0
angle = 0.0
angle_random = 0.0
scale = 1.0
scale_random = 0.0
scale_curve = SubResource( 5 )
color_ramp = SubResource( 3 )
hue_variation = 0.0
hue_variation_random = 0.0
anim_speed = 0.0
anim_speed_random = 0.0
anim_offset = 0.0
anim_offset_random = 0.0
anim_loop = false
_sections_unfolded = [ "Angle", "Angular Velocity", "Color", "Damping", "Gravity", "Initial Velocity", "Linear Accel", "Radial Accel", "Scale", "Spread", "Tangential Accel" ]

[sub_resource type="CubeMesh" id=7]

custom_aabb = AABB( 0, 0, 0, 0, 0, 0 )
size = Vector3( 2, 2, 2 )
subdivide_width = 0
subdivide_height = 0
subdivide_depth = 0

[node name="Scene Root" instance=ExtResource( 1 )]

[node name="fass" parent="." index="0"]

_sections_unfolded = [ "Transform", "Visibility" ]

[node name="Particles" type="Particles" parent="." index="1"]

transform = Transform( 1, 0, 0, 0, 1, 0, 0, 0, 1, -0.0221328, 0.767986, -0.0770147 )
layers = 1
material_override = SubResource( 1 )
cast_shadow = 0
extra_cull_margin = 0.0
use_in_baked_light = false
lod_min_distance = 0.0
lod_min_hysteresis = 0.0
lod_max_distance = 0.0
lod_max_hysteresis = 0.0
emitting = true
amount = 120
lifetime = 1.0
one_shot = false
preprocess = 0.0
speed_scale = 1.0
explosiveness = 0.0
randomness = 0.0
fixed_fps = 0
fract_delta = true
visibility_aabb = AABB( -4, -4, -4, 8, 8, 8 )
local_coords = true
draw_order = 0
process_material = SubResource( 6 )
draw_passes = 1
draw_pass_1 = SubResource( 7 )
_sections_unfolded = [ "Draw Passes", "Drawing", "Geometry", "Process Material", "Time" ]

[node name="SpotLight" type="SpotLight" parent="." index="2"]

transform = Transform( 1, 0, 0, 0, -4.37114e-008, -1, 0, 1, -4.37114e-008, 0, 0, 0 )
layers = 1
light_color = Color( 0.96875, 0.794678, 0, 1 )
light_energy = 10.0
light_indirect_energy = 1.0
light_negative = false
light_specular = 0.5
light_bake_mode = 1
light_cull_mask = -1
shadow_enabled = false
shadow_color = Color( 0, 0, 0, 1 )
shadow_bias = 0.15
shadow_contact = 0.0
shadow_reverse_cull_face = false
editor_only = false
spot_range = 2.38192
spot_attenuation = 1.0
spot_angle = 19.4349
spot_angle_attenuation = 1.0
_sections_unfolded = [ "Light" ]

[node name="OmniLight" type="OmniLight" parent="." index="3"]

transform = Transform( 1, 0, 0, 0, 1, 0, 0, 0, 1, 0, 1.55915, 0 )
layers = 1
light_color = Color( 0.992188, 0.441833, 0, 1 )
light_energy = 1.0
light_indirect_energy = 1.0
light_negative = false
light_specular = 0.5
light_bake_mode = 1
light_cull_mask = -1
shadow_enabled = false
shadow_color = Color( 0, 0, 0, 1 )
shadow_bias = 0.15
shadow_contact = 0.0
shadow_reverse_cull_face = false
editor_only = false
omni_range = 2.16731
omni_attenuation = 1.0
omni_shadow_mode = 1
omni_shadow_detail = 1
_sections_unfolded = [ "Editor", "Light", "Shadow" ]


