[gd_scene load_steps=8 format=2]

[sub_resource type="SpatialMaterial" id=8]

render_priority = 0
flags_transparent = false
flags_unshaded = false
flags_vertex_lighting = false
flags_no_depth_test = false
flags_use_point_size = false
flags_world_triplanar = false
flags_fixed_size = false
flags_albedo_tex_force_srgb = false
vertex_color_use_as_albedo = false
vertex_color_is_srgb = false
params_diffuse_mode = 0
params_specular_mode = 0
params_blend_mode = 0
params_cull_mode = 0
params_depth_draw_mode = 0
params_line_width = 1.0
params_point_size = 1.0
params_billboard_mode = 0
params_grow = false
params_use_alpha_scissor = false
albedo_color = Color( 0.476563, 0.209921, 0.0930786, 1 )
metallic = 0.0
metallic_specular = 0.5
metallic_texture_channel = 0
roughness = 0.0
roughness_texture_channel = 0
emission_enabled = false
normal_enabled = false
rim_enabled = false
clearcoat_enabled = false
anisotropy_enabled = false
ao_enabled = false
depth_enabled = false
subsurf_scatter_enabled = false
transmission_enabled = false
refraction_enabled = false
detail_enabled = false
uv1_scale = Vector3( 1, 1, 1 )
uv1_offset = Vector3( 0, 0, 0 )
uv1_triplanar = false
uv1_triplanar_sharpness = 1.0
uv2_scale = Vector3( 1, 1, 1 )
uv2_offset = Vector3( 0, 0, 0 )
uv2_triplanar = false
uv2_triplanar_sharpness = 1.0
proximity_fade_enable = false
distance_fade_enable = false
_sections_unfolded = [ "Albedo", "Metallic", "Vertex Color" ]

[sub_resource type="Curve" id=2]

min_value = -360.0
max_value = 360.0
bake_resolution = 100
_data = [ Vector2( 0.00611893, -360 ), 0.0, 0.0, 0, 0, Vector2( 0.999173, 360 ), 0.0, 0.0, 0, 0 ]

[sub_resource type="CurveTexture" id=3]

flags = 4
width = 2048
curve = SubResource( 2 )

[sub_resource type="Curve" id=4]

min_value = 0.0
max_value = 1.0
bake_resolution = 100
_data = [ Vector2( 0, 0 ), 0.0, 0.0, 0, 0, Vector2( 0.501764, 0.983398 ), 0.0, 0.0, 0, 0, Vector2( 1, 0 ), 0.0, 0.0, 0, 0 ]

[sub_resource type="CurveTexture" id=5]

flags = 4
width = 2048
curve = SubResource( 4 )

[sub_resource type="ParticlesMaterial" id=6]

render_priority = 0
trail_divisor = 1
emission_shape = 1
emission_sphere_radius = 1.0
flag_align_y = false
flag_rotate_y = false
flag_disable_z = false
spread = 33.16
flatness = 0.0
gravity = Vector3( 0, 10, 0 )
initial_velocity = 1.0
initial_velocity_random = 0.0
angular_velocity = 0.0
angular_velocity_random = 0.0
angular_velocity_curve = SubResource( 3 )
linear_accel = 0.0
linear_accel_random = 0.0
radial_accel = 0.0
radial_accel_random = 0.0
tangential_accel = 0.0
tangential_accel_random = 0.0
damping = 0.0
damping_random = 0.0
angle = 0.0
angle_random = 0.0
scale = 1.0
scale_random = 0.0
scale_curve = SubResource( 5 )
color = Color( 1, 0.015625, 0.015625, 1 )
hue_variation = 0.0
hue_variation_random = 0.0
anim_speed = 0.0
anim_speed_random = 0.0
anim_offset = 0.0
anim_offset_random = 0.0
anim_loop = false
_sections_unfolded = [ "Angular Velocity", "Color", "Emission Shape", "Gravity", "Hue Variation", "Initial Velocity", "Radial Accel", "Scale", "Trail" ]

[sub_resource type="SphereMesh" id=7]

custom_aabb = AABB( 0, 0, 0, 0, 0, 0 )
radius = 0.1
height = 0.2
radial_segments = 12
rings = 12
is_hemisphere = false

[node name="Particles" type="Particles" index="0"]

layers = 1
material_override = SubResource( 8 )
cast_shadow = 1
extra_cull_margin = 0.0
use_in_baked_light = false
lod_min_distance = 0.0
lod_min_hysteresis = 0.0
lod_max_distance = 0.0
lod_max_hysteresis = 0.0
emitting = true
amount = 100
lifetime = 0.5
one_shot = false
preprocess = 0.0
speed_scale = 1.0
explosiveness = 0.5
randomness = 0.0
fixed_fps = 0
fract_delta = true
visibility_aabb = AABB( -4.33451, -4, -4, 8.66901, 8, 8 )
local_coords = true
draw_order = 0
process_material = SubResource( 6 )
draw_passes = 1
draw_pass_1 = SubResource( 7 )
_sections_unfolded = [ "Draw Passes", "Geometry", "LOD", "Pause", "Process Material", "Time", "Transform" ]


