[gd_scene load_steps=8 format=2]

[sub_resource type="SpatialMaterial" id=1]

render_priority = 0
flags_transparent = false
flags_unshaded = false
flags_vertex_lighting = false
flags_no_depth_test = false
flags_use_point_size = false
flags_world_triplanar = false
flags_fixed_size = false
flags_albedo_tex_force_srgb = false
vertex_color_use_as_albedo = true
vertex_color_is_srgb = false
params_diffuse_mode = 0
params_specular_mode = 0
params_blend_mode = 0
params_cull_mode = 0
params_depth_draw_mode = 0
params_line_width = 1.0
params_point_size = 1.0
params_billboard_mode = 0
params_grow = false
params_use_alpha_scissor = false
albedo_color = Color( 0.984375, 0.965149, 0.965149, 1 )
metallic = 0.0
metallic_specular = 0.5
metallic_texture_channel = 0
roughness = 0.0
roughness_texture_channel = 0
emission_enabled = false
normal_enabled = false
rim_enabled = false
clearcoat_enabled = false
anisotropy_enabled = false
ao_enabled = false
depth_enabled = false
subsurf_scatter_enabled = false
transmission_enabled = false
refraction_enabled = false
detail_enabled = false
uv1_scale = Vector3( 1, 1, 1 )
uv1_offset = Vector3( 0, 0, 0 )
uv1_triplanar = false
uv1_triplanar_sharpness = 1.0
uv2_scale = Vector3( 1, 1, 1 )
uv2_offset = Vector3( 0, 0, 0 )
uv2_triplanar = false
uv2_triplanar_sharpness = 1.0
proximity_fade_enable = false
distance_fade_enable = false
_sections_unfolded = [ "Emission", "Vertex Color" ]

[sub_resource type="Gradient" id=2]

offsets = PoolRealArray( 0 )
colors = PoolColorArray( 0.980469, 0.980469, 0.980469, 1 )

[sub_resource type="GradientTexture" id=3]

flags = 4
gradient = SubResource( 2 )
width = 2048

[sub_resource type="Curve" id=4]

min_value = 0.0
max_value = 1.0
bake_resolution = 100
_data = [ Vector2( 0, 1 ), 0.0, 0.0, 0, 0, Vector2( 0.998465, 0.0273438 ), 0.32108, 0.0, 0, 0 ]

[sub_resource type="CurveTexture" id=5]

flags = 4
width = 2048
curve = SubResource( 4 )

[sub_resource type="ParticlesMaterial" id=6]

render_priority = 0
trail_divisor = 1
emission_shape = 0
flag_align_y = false
flag_rotate_y = false
flag_disable_z = false
spread = 180.0
flatness = 0.0
gravity = Vector3( 0, 0.3, 0 )
initial_velocity = 3.0
initial_velocity_random = 0.0
angular_velocity = 1.0
angular_velocity_random = 1.0
linear_accel = 0.0
linear_accel_random = 0.0
radial_accel = 1.0
radial_accel_random = 1.0
tangential_accel = 0.0
tangential_accel_random = 0.0
damping = 1.0
damping_random = 0.0
angle = 0.0
angle_random = 0.0
scale = 1.0
scale_random = 0.0
scale_curve = SubResource( 5 )
color_ramp = SubResource( 3 )
hue_variation = 0.0
hue_variation_random = 0.0
anim_speed = 0.0
anim_speed_random = 0.0
anim_offset = 0.0
anim_offset_random = 0.0
anim_loop = false
_sections_unfolded = [ "Angular Velocity", "Color", "Damping", "Gravity", "Initial Velocity", "Radial Accel", "Scale", "Spread" ]

[sub_resource type="SphereMesh" id=7]

custom_aabb = AABB( 0, 0, 0, 0, 0, 0 )
radius = 1.0
height = 2.0
radial_segments = 64
rings = 32
is_hemisphere = false

[node name="Spatial" type="Spatial" index="0"]

[node name="Particles" type="Particles" parent="." index="0"]

transform = Transform( 0.00324525, -1.99841, 0.0795725, -2, -0.00324782, 1.24976e-10, 0.000129219, -0.0795724, -1.99842, 0, 0, 0 )
layers = 1
material_override = SubResource( 1 )
cast_shadow = 1
extra_cull_margin = 0.0
use_in_baked_light = false
lod_min_distance = 0.0
lod_min_hysteresis = 0.0
lod_max_distance = 0.0
lod_max_hysteresis = 0.0
emitting = false
amount = 20
lifetime = 3.0
one_shot = true
preprocess = 0.0
speed_scale = 8.0
explosiveness = 1.0
randomness = 1.0
fixed_fps = 0
fract_delta = true
visibility_aabb = AABB( -4, -4, -4, 8, 8, 8 )
local_coords = false
draw_order = 0
process_material = SubResource( 6 )
draw_passes = 1
draw_pass_1 = SubResource( 7 )
_sections_unfolded = [ "Draw Passes", "Drawing", "Geometry", "Process Material", "Time", "Transform", "Visibility" ]


