[gd_scene load_steps=3 format=2]

[ext_resource path="res://assets/models/MonsterTruck_wheel.glb" type="PackedScene" id=1]

[sub_resource type="BoxShape" id=1]

extents = Vector3( 1, 1, 1 )

[node name="RigidBody13" type="RigidBody"]

input_ray_pickable = true
input_capture_on_drag = false
collision_layer = 1
collision_mask = 1
mode = 0
mass = 1.0
friction = 1.0
bounce = 0.0
gravity_scale = 1.0
custom_integrator = false
continuous_cd = false
contacts_reported = 0
contact_monitor = false
sleeping = false
can_sleep = true
axis_lock_linear_x = false
axis_lock_linear_y = false
axis_lock_linear_z = false
axis_lock_angular_x = false
axis_lock_angular_y = false
axis_lock_angular_z = false
linear_velocity = Vector3( 0, 0, 0 )
linear_damp = -1.0
angular_velocity = Vector3( 0, 0, 0 )
angular_damp = -1.0
_sections_unfolded = [ "Transform" ]

[node name="Scene Root11" parent="." index="0" instance=ExtResource( 1 )]

_sections_unfolded = [ "Transform" ]

[node name="CollisionShape" type="CollisionShape" parent="." index="1"]

transform = Transform( 0.7, 0, 0, 0, 1.3, 0, 0, 0, 1.3, 0, 0, 0 )
shape = SubResource( 1 )
disabled = false
_sections_unfolded = [ "Transform" ]


