[gd_scene load_steps=20 format=2]

[ext_resource path="res://scripts/TRAILER.cs" type="Script" id=1]
[ext_resource path="res://assets/particles/Sandspur.tscn" type="PackedScene" id=2]
[ext_resource path="res://Materials/car_blue_body.material" type="Material" id=3]
[ext_resource path="res://assets/models/trailer.glb" type="PackedScene" id=4]
[ext_resource path="res://scripts/Cannon.cs" type="Script" id=5]
[ext_resource path="res://prefabs/CannonBall.tscn" type="PackedScene" id=6]
[ext_resource path="res://assets/models/canon.glb" type="PackedScene" id=7]
[ext_resource path="res://assets/particles/Puff.tscn" type="PackedScene" id=8]
[ext_resource path="res://assets/audio/sounds/cannon.ogg" type="AudioStream" id=9]
[ext_resource path="res://scripts/vehicle.gd" type="Script" id=10]
[ext_resource path="res://assets/models/car_wheel.glb" type="PackedScene" id=11]
[ext_resource path="res://assets/models/car.glb" type="PackedScene" id=12]
[ext_resource path="res://assets/audio/sounds/engine_looping.ogg" type="AudioStream" id=13]





[sub_resource type="ArrayMesh" id=1]

blend_shape_mode = 1
custom_aabb = AABB( 0, 0, 0, 0, 0, 0 )
surfaces/0 = {
"aabb": AABB( -0.0614569, -0.228035, -0.228035, 0.122914, 0.45608, 0.45607 ),
"array_data": PoolByteArray( 221, 171, 76, 51, 210, 43, 0, 60, 130, 0, 0, 0, 221, 171, 76, 51, 210, 171, 0, 60, 130, 0, 0, 0, 221, 171, 87, 49, 87, 49, 0, 60, 130, 0, 0, 0, 221, 171, 87, 49, 87, 177, 0, 60, 130, 0, 0, 0, 221, 171, 210, 43, 76, 179, 0, 60, 130, 0, 0, 0, 221, 171, 210, 171, 76, 179, 0, 60, 130, 0, 0, 0, 221, 171, 87, 177, 87, 177, 0, 60, 130, 0, 0, 0, 221, 171, 76, 179, 210, 171, 0, 60, 130, 0, 0, 0, 221, 171, 76, 179, 210, 43, 0, 60, 130, 0, 0, 0, 221, 171, 87, 177, 87, 49, 0, 60, 130, 0, 0, 0, 221, 171, 210, 171, 76, 51, 0, 60, 130, 0, 0, 0, 221, 171, 210, 43, 76, 51, 0, 60, 130, 0, 0, 0, 221, 43, 76, 51, 210, 43, 0, 60, 127, 0, 0, 0, 221, 43, 87, 49, 87, 49, 0, 60, 127, 0, 0, 0, 221, 43, 76, 51, 210, 171, 0, 60, 127, 0, 0, 0, 221, 43, 210, 43, 76, 51, 0, 60, 127, 0, 0, 0, 221, 43, 210, 171, 76, 51, 0, 60, 127, 0, 0, 0, 221, 43, 87, 177, 87, 49, 0, 60, 127, 0, 0, 0, 221, 43, 76, 179, 210, 43, 0, 60, 127, 0, 0, 0, 221, 43, 76, 179, 210, 171, 0, 60, 127, 0, 0, 0, 221, 43, 87, 177, 87, 177, 0, 60, 127, 0, 0, 0, 221, 43, 210, 171, 76, 179, 0, 60, 127, 0, 0, 0, 221, 43, 210, 43, 76, 179, 0, 60, 127, 0, 0, 0, 221, 43, 87, 49, 87, 177, 0, 60, 127, 0, 0, 0, 221, 171, 87, 177, 87, 177, 0, 60, 0, 193, 147, 0, 221, 171, 210, 171, 76, 179, 0, 60, 0, 193, 147, 0, 221, 43, 210, 171, 76, 179, 0, 60, 0, 193, 147, 0, 221, 43, 87, 177, 87, 177, 0, 60, 0, 193, 147, 0, 221, 171, 210, 43, 76, 51, 0, 60, 0, 0, 126, 0, 221, 171, 210, 171, 76, 51, 0, 60, 0, 0, 126, 0, 221, 43, 210, 171, 76, 51, 0, 60, 0, 0, 126, 0, 221, 43, 210, 43, 76, 51, 0, 60, 0, 0, 126, 0, 221, 171, 210, 171, 76, 179, 0, 60, 0, 0, 129, 0, 221, 171, 210, 43, 76, 179, 0, 60, 0, 0, 129, 0, 221, 43, 210, 43, 76, 179, 0, 60, 0, 0, 129, 0, 221, 43, 210, 171, 76, 179, 0, 60, 0, 0, 129, 0, 221, 171, 210, 171, 76, 51, 0, 60, 0, 193, 109, 0, 221, 171, 87, 177, 87, 49, 0, 60, 0, 193, 109, 0, 221, 43, 87, 177, 87, 49, 0, 60, 0, 193, 109, 0, 221, 43, 210, 171, 76, 51, 0, 60, 0, 193, 109, 0, 221, 171, 210, 43, 76, 179, 0, 60, 0, 63, 147, 0, 221, 171, 87, 49, 87, 177, 0, 60, 0, 63, 147, 0, 221, 43, 87, 49, 87, 177, 0, 60, 0, 63, 147, 0, 221, 43, 210, 43, 76, 179, 0, 60, 0, 63, 147, 0, 221, 171, 87, 177, 87, 49, 0, 60, 0, 147, 63, 0, 221, 171, 76, 179, 210, 43, 0, 60, 0, 147, 63, 0, 221, 43, 76, 179, 210, 43, 0, 60, 0, 147, 63, 0, 221, 43, 87, 177, 87, 49, 0, 60, 0, 147, 63, 0, 221, 171, 87, 49, 87, 177, 0, 60, 0, 109, 193, 0, 221, 171, 76, 51, 210, 171, 0, 60, 0, 109, 193, 0, 221, 43, 76, 51, 210, 171, 0, 60, 0, 109, 193, 0, 221, 43, 87, 49, 87, 177, 0, 60, 0, 109, 193, 0, 221, 171, 76, 179, 210, 43, 0, 60, 0, 130, 0, 0, 221, 171, 76, 179, 210, 171, 0, 60, 0, 130, 0, 0, 221, 43, 76, 179, 210, 171, 0, 60, 0, 130, 0, 0, 221, 43, 76, 179, 210, 43, 0, 60, 0, 130, 0, 0, 221, 171, 76, 51, 210, 43, 0, 60, 0, 109, 63, 0, 221, 171, 87, 49, 87, 49, 0, 60, 0, 109, 63, 0, 221, 43, 87, 49, 87, 49, 0, 60, 0, 109, 63, 0, 221, 43, 76, 51, 210, 43, 0, 60, 0, 109, 63, 0, 221, 171, 76, 51, 210, 171, 0, 60, 0, 127, 0, 0, 221, 171, 76, 51, 210, 43, 0, 60, 0, 127, 0, 0, 221, 43, 76, 51, 210, 43, 0, 60, 0, 127, 0, 0, 221, 43, 76, 51, 210, 171, 0, 60, 0, 127, 0, 0, 221, 171, 76, 179, 210, 171, 0, 60, 0, 147, 193, 0, 221, 171, 87, 177, 87, 177, 0, 60, 0, 147, 193, 0, 221, 43, 87, 177, 87, 177, 0, 60, 0, 147, 193, 0, 221, 43, 76, 179, 210, 171, 0, 60, 0, 147, 193, 0, 221, 171, 87, 49, 87, 49, 0, 60, 0, 63, 109, 0, 221, 171, 210, 43, 76, 51, 0, 60, 0, 63, 109, 0, 221, 43, 210, 43, 76, 51, 0, 60, 0, 63, 109, 0, 221, 43, 87, 49, 87, 49, 0, 60, 0, 63, 109, 0 ),
"array_index_data": PoolByteArray( 0, 0, 2, 0, 1, 0, 1, 0, 4, 0, 3, 0, 4, 0, 6, 0, 5, 0, 6, 0, 8, 0, 7, 0, 8, 0, 10, 0, 9, 0, 10, 0, 2, 0, 11, 0, 1, 0, 2, 0, 4, 0, 4, 0, 8, 0, 6, 0, 8, 0, 2, 0, 10, 0, 4, 0, 2, 0, 8, 0, 12, 0, 14, 0, 13, 0, 13, 0, 16, 0, 15, 0, 16, 0, 18, 0, 17, 0, 18, 0, 20, 0, 19, 0, 20, 0, 22, 0, 21, 0, 22, 0, 14, 0, 23, 0, 13, 0, 14, 0, 16, 0, 16, 0, 20, 0, 18, 0, 20, 0, 14, 0, 22, 0, 16, 0, 14, 0, 20, 0, 24, 0, 26, 0, 25, 0, 24, 0, 27, 0, 26, 0, 28, 0, 30, 0, 29, 0, 28, 0, 31, 0, 30, 0, 32, 0, 34, 0, 33, 0, 32, 0, 35, 0, 34, 0, 36, 0, 38, 0, 37, 0, 36, 0, 39, 0, 38, 0, 40, 0, 42, 0, 41, 0, 40, 0, 43, 0, 42, 0, 44, 0, 46, 0, 45, 0, 44, 0, 47, 0, 46, 0, 48, 0, 50, 0, 49, 0, 48, 0, 51, 0, 50, 0, 52, 0, 54, 0, 53, 0, 52, 0, 55, 0, 54, 0, 56, 0, 58, 0, 57, 0, 56, 0, 59, 0, 58, 0, 60, 0, 62, 0, 61, 0, 60, 0, 63, 0, 62, 0, 64, 0, 66, 0, 65, 0, 64, 0, 67, 0, 66, 0, 68, 0, 70, 0, 69, 0, 68, 0, 71, 0, 70, 0 ),
"blend_shape_data": [  ],
"format": 98051,
"index_count": 132,
"material": ExtResource( 3 ),
"name": "Material.001",
"primitive": 4,
"skeleton_aabb": [  ],
"vertex_count": 72
}

[sub_resource type="ArrayMesh" id=2]

blend_shape_mode = 1
custom_aabb = AABB( 0, 0, 0, 0, 0, 0 )
surfaces/0 = {
"aabb": AABB( -0.061457, -0.228035, -0.228035, 0.122924, 0.45608, 0.45607 ),
"array_data": PoolByteArray( 221, 43, 76, 51, 210, 43, 0, 60, 127, 0, 0, 0, 221, 43, 87, 49, 87, 49, 0, 60, 127, 0, 0, 0, 221, 43, 76, 51, 210, 171, 0, 60, 127, 0, 0, 0, 221, 43, 210, 43, 76, 51, 0, 60, 127, 0, 0, 0, 221, 43, 210, 171, 76, 51, 0, 60, 127, 0, 0, 0, 221, 43, 87, 177, 87, 49, 0, 60, 127, 0, 0, 0, 221, 43, 76, 179, 210, 43, 0, 60, 127, 0, 0, 0, 221, 43, 76, 179, 210, 171, 0, 60, 127, 0, 0, 0, 221, 43, 87, 177, 87, 177, 0, 60, 127, 0, 0, 0, 221, 43, 210, 171, 76, 179, 0, 60, 127, 0, 0, 0, 221, 43, 210, 43, 76, 179, 0, 60, 127, 0, 0, 0, 221, 43, 87, 49, 87, 177, 0, 60, 127, 0, 0, 0, 221, 171, 76, 51, 210, 43, 0, 60, 130, 0, 0, 0, 221, 171, 76, 51, 210, 171, 0, 60, 130, 0, 0, 0, 221, 171, 87, 49, 87, 49, 0, 60, 130, 0, 0, 0, 221, 171, 87, 49, 87, 177, 0, 60, 130, 0, 0, 0, 221, 171, 210, 43, 76, 179, 0, 60, 130, 0, 0, 0, 221, 171, 210, 171, 76, 179, 0, 60, 130, 0, 0, 0, 221, 171, 87, 177, 87, 177, 0, 60, 130, 0, 0, 0, 221, 171, 76, 179, 210, 171, 0, 60, 130, 0, 0, 0, 221, 171, 76, 179, 210, 43, 0, 60, 130, 0, 0, 0, 221, 171, 87, 177, 87, 49, 0, 60, 130, 0, 0, 0, 221, 171, 210, 171, 76, 51, 0, 60, 130, 0, 0, 0, 221, 171, 210, 43, 76, 51, 0, 60, 130, 0, 0, 0, 221, 43, 87, 177, 87, 177, 0, 60, 0, 193, 147, 0, 221, 171, 87, 177, 87, 177, 0, 60, 0, 193, 147, 0, 221, 171, 210, 171, 76, 179, 0, 60, 0, 193, 147, 0, 221, 43, 210, 171, 76, 179, 0, 60, 0, 193, 147, 0, 221, 43, 210, 43, 76, 51, 0, 60, 0, 0, 126, 0, 221, 171, 210, 43, 76, 51, 0, 60, 0, 0, 126, 0, 221, 171, 210, 171, 76, 51, 0, 60, 0, 0, 126, 0, 221, 43, 210, 171, 76, 51, 0, 60, 0, 0, 126, 0, 221, 43, 210, 171, 76, 179, 0, 60, 0, 0, 129, 0, 221, 171, 210, 171, 76, 179, 0, 60, 0, 0, 129, 0, 221, 171, 210, 43, 76, 179, 0, 60, 0, 0, 129, 0, 221, 43, 210, 43, 76, 179, 0, 60, 0, 0, 129, 0, 221, 43, 210, 171, 76, 51, 0, 60, 0, 193, 109, 0, 221, 171, 210, 171, 76, 51, 0, 60, 0, 193, 109, 0, 221, 171, 87, 177, 87, 49, 0, 60, 0, 193, 109, 0, 221, 43, 87, 177, 87, 49, 0, 60, 0, 193, 109, 0, 221, 43, 210, 43, 76, 179, 0, 60, 0, 63, 147, 0, 221, 171, 210, 43, 76, 179, 0, 60, 0, 63, 147, 0, 221, 171, 87, 49, 87, 177, 0, 60, 0, 63, 147, 0, 221, 43, 87, 49, 87, 177, 0, 60, 0, 63, 147, 0, 221, 43, 87, 177, 87, 49, 0, 60, 0, 147, 63, 0, 221, 171, 87, 177, 87, 49, 0, 60, 0, 147, 63, 0, 221, 171, 76, 179, 210, 43, 0, 60, 0, 147, 63, 0, 221, 43, 76, 179, 210, 43, 0, 60, 0, 147, 63, 0, 221, 43, 87, 49, 87, 177, 0, 60, 0, 109, 193, 0, 221, 171, 87, 49, 87, 177, 0, 60, 0, 109, 193, 0, 221, 171, 76, 51, 210, 171, 0, 60, 0, 109, 193, 0, 221, 43, 76, 51, 210, 171, 0, 60, 0, 109, 193, 0, 221, 43, 76, 179, 210, 43, 0, 60, 0, 130, 0, 0, 221, 171, 76, 179, 210, 43, 0, 60, 0, 130, 0, 0, 221, 171, 76, 179, 210, 171, 0, 60, 0, 130, 0, 0, 221, 43, 76, 179, 210, 171, 0, 60, 0, 130, 0, 0, 221, 43, 76, 51, 210, 43, 0, 60, 0, 109, 63, 0, 221, 171, 76, 51, 210, 43, 0, 60, 0, 109, 63, 0, 221, 171, 87, 49, 87, 49, 0, 60, 0, 109, 63, 0, 221, 43, 87, 49, 87, 49, 0, 60, 0, 109, 63, 0, 221, 171, 76, 51, 210, 43, 0, 60, 0, 127, 0, 0, 221, 43, 76, 51, 210, 43, 0, 60, 0, 127, 0, 0, 221, 43, 76, 51, 210, 171, 0, 60, 0, 127, 0, 0, 221, 171, 76, 51, 210, 171, 0, 60, 0, 127, 0, 0, 221, 43, 76, 179, 210, 171, 0, 60, 0, 147, 193, 0, 221, 171, 76, 179, 210, 171, 0, 60, 0, 147, 193, 0, 221, 171, 87, 177, 87, 177, 0, 60, 0, 147, 193, 0, 221, 43, 87, 177, 87, 177, 0, 60, 0, 147, 193, 0, 221, 43, 87, 49, 87, 49, 0, 60, 0, 63, 109, 0, 221, 171, 87, 49, 87, 49, 0, 60, 0, 63, 109, 0, 221, 171, 210, 43, 76, 51, 0, 60, 0, 63, 109, 0, 221, 43, 210, 43, 76, 51, 0, 60, 0, 63, 109, 0 ),
"array_index_data": PoolByteArray( 0, 0, 2, 0, 1, 0, 1, 0, 4, 0, 3, 0, 4, 0, 6, 0, 5, 0, 6, 0, 8, 0, 7, 0, 8, 0, 10, 0, 9, 0, 10, 0, 2, 0, 11, 0, 1, 0, 2, 0, 4, 0, 4, 0, 8, 0, 6, 0, 8, 0, 2, 0, 10, 0, 4, 0, 2, 0, 8, 0, 12, 0, 14, 0, 13, 0, 13, 0, 16, 0, 15, 0, 16, 0, 18, 0, 17, 0, 18, 0, 20, 0, 19, 0, 20, 0, 22, 0, 21, 0, 22, 0, 14, 0, 23, 0, 13, 0, 14, 0, 16, 0, 16, 0, 20, 0, 18, 0, 20, 0, 14, 0, 22, 0, 16, 0, 14, 0, 20, 0, 24, 0, 26, 0, 25, 0, 24, 0, 27, 0, 26, 0, 28, 0, 30, 0, 29, 0, 28, 0, 31, 0, 30, 0, 32, 0, 34, 0, 33, 0, 32, 0, 35, 0, 34, 0, 36, 0, 38, 0, 37, 0, 36, 0, 39, 0, 38, 0, 40, 0, 42, 0, 41, 0, 40, 0, 43, 0, 42, 0, 44, 0, 46, 0, 45, 0, 44, 0, 47, 0, 46, 0, 48, 0, 50, 0, 49, 0, 48, 0, 51, 0, 50, 0, 52, 0, 54, 0, 53, 0, 52, 0, 55, 0, 54, 0, 56, 0, 58, 0, 57, 0, 56, 0, 59, 0, 58, 0, 60, 0, 62, 0, 61, 0, 60, 0, 63, 0, 62, 0, 64, 0, 66, 0, 65, 0, 64, 0, 67, 0, 66, 0, 68, 0, 70, 0, 69, 0, 68, 0, 71, 0, 70, 0 ),
"blend_shape_data": [  ],
"format": 98051,
"index_count": 132,
"material": ExtResource( 3 ),
"name": "Material.001",
"primitive": 4,
"skeleton_aabb": [  ],
"vertex_count": 72
}

[sub_resource type="Animation" id=3]

resource_name = "ShootCannon"
length = 1.0
loop = false
step = 0.01
tracks/0/type = "value"
tracks/0/path = NodePath(".:translation")
tracks/0/interp = 1
tracks/0/loop_wrap = true
tracks/0/imported = false
tracks/0/enabled = true
tracks/0/keys = {
"times": PoolRealArray( 0, 0.04, 0.28 ),
"transitions": PoolRealArray( 1, 1, 1 ),
"update": 0,
"values": [ Vector3( 0, 0, 0 ), Vector3( 0, 0, 0.184312 ), Vector3( 0, 0, 0 ) ]
}

[sub_resource type="BoxShape" id=4]

extents = Vector3( 0.748914, 0.694175, 1.97084 )

[sub_resource type="ArrayMesh" id=5]

blend_shape_mode = 1
custom_aabb = AABB( 0, 0, 0, 0, 0, 0 )
surfaces/0 = {
"aabb": AABB( -0.061457, -0.228035, -0.228035, 0.122924, 0.45608, 0.45607 ),
"array_data": PoolByteArray( 221, 43, 76, 51, 210, 43, 0, 60, 127, 0, 0, 0, 221, 43, 87, 49, 87, 49, 0, 60, 127, 0, 0, 0, 221, 43, 76, 51, 210, 171, 0, 60, 127, 0, 0, 0, 221, 43, 210, 43, 76, 51, 0, 60, 127, 0, 0, 0, 221, 43, 210, 171, 76, 51, 0, 60, 127, 0, 0, 0, 221, 43, 87, 177, 87, 49, 0, 60, 127, 0, 0, 0, 221, 43, 76, 179, 210, 43, 0, 60, 127, 0, 0, 0, 221, 43, 76, 179, 210, 171, 0, 60, 127, 0, 0, 0, 221, 43, 87, 177, 87, 177, 0, 60, 127, 0, 0, 0, 221, 43, 210, 171, 76, 179, 0, 60, 127, 0, 0, 0, 221, 43, 210, 43, 76, 179, 0, 60, 127, 0, 0, 0, 221, 43, 87, 49, 87, 177, 0, 60, 127, 0, 0, 0, 221, 171, 76, 51, 210, 43, 0, 60, 130, 0, 0, 0, 221, 171, 76, 51, 210, 171, 0, 60, 130, 0, 0, 0, 221, 171, 87, 49, 87, 49, 0, 60, 130, 0, 0, 0, 221, 171, 87, 49, 87, 177, 0, 60, 130, 0, 0, 0, 221, 171, 210, 43, 76, 179, 0, 60, 130, 0, 0, 0, 221, 171, 210, 171, 76, 179, 0, 60, 130, 0, 0, 0, 221, 171, 87, 177, 87, 177, 0, 60, 130, 0, 0, 0, 221, 171, 76, 179, 210, 171, 0, 60, 130, 0, 0, 0, 221, 171, 76, 179, 210, 43, 0, 60, 130, 0, 0, 0, 221, 171, 87, 177, 87, 49, 0, 60, 130, 0, 0, 0, 221, 171, 210, 171, 76, 51, 0, 60, 130, 0, 0, 0, 221, 171, 210, 43, 76, 51, 0, 60, 130, 0, 0, 0, 221, 43, 87, 177, 87, 177, 0, 60, 0, 193, 147, 0, 221, 171, 87, 177, 87, 177, 0, 60, 0, 193, 147, 0, 221, 171, 210, 171, 76, 179, 0, 60, 0, 193, 147, 0, 221, 43, 210, 171, 76, 179, 0, 60, 0, 193, 147, 0, 221, 43, 210, 43, 76, 51, 0, 60, 0, 0, 126, 0, 221, 171, 210, 43, 76, 51, 0, 60, 0, 0, 126, 0, 221, 171, 210, 171, 76, 51, 0, 60, 0, 0, 126, 0, 221, 43, 210, 171, 76, 51, 0, 60, 0, 0, 126, 0, 221, 43, 210, 171, 76, 179, 0, 60, 0, 0, 129, 0, 221, 171, 210, 171, 76, 179, 0, 60, 0, 0, 129, 0, 221, 171, 210, 43, 76, 179, 0, 60, 0, 0, 129, 0, 221, 43, 210, 43, 76, 179, 0, 60, 0, 0, 129, 0, 221, 43, 210, 171, 76, 51, 0, 60, 0, 193, 109, 0, 221, 171, 210, 171, 76, 51, 0, 60, 0, 193, 109, 0, 221, 171, 87, 177, 87, 49, 0, 60, 0, 193, 109, 0, 221, 43, 87, 177, 87, 49, 0, 60, 0, 193, 109, 0, 221, 43, 210, 43, 76, 179, 0, 60, 0, 63, 147, 0, 221, 171, 210, 43, 76, 179, 0, 60, 0, 63, 147, 0, 221, 171, 87, 49, 87, 177, 0, 60, 0, 63, 147, 0, 221, 43, 87, 49, 87, 177, 0, 60, 0, 63, 147, 0, 221, 43, 87, 177, 87, 49, 0, 60, 0, 147, 63, 0, 221, 171, 87, 177, 87, 49, 0, 60, 0, 147, 63, 0, 221, 171, 76, 179, 210, 43, 0, 60, 0, 147, 63, 0, 221, 43, 76, 179, 210, 43, 0, 60, 0, 147, 63, 0, 221, 43, 87, 49, 87, 177, 0, 60, 0, 109, 193, 0, 221, 171, 87, 49, 87, 177, 0, 60, 0, 109, 193, 0, 221, 171, 76, 51, 210, 171, 0, 60, 0, 109, 193, 0, 221, 43, 76, 51, 210, 171, 0, 60, 0, 109, 193, 0, 221, 43, 76, 179, 210, 43, 0, 60, 0, 130, 0, 0, 221, 171, 76, 179, 210, 43, 0, 60, 0, 130, 0, 0, 221, 171, 76, 179, 210, 171, 0, 60, 0, 130, 0, 0, 221, 43, 76, 179, 210, 171, 0, 60, 0, 130, 0, 0, 221, 43, 76, 51, 210, 43, 0, 60, 0, 109, 63, 0, 221, 171, 76, 51, 210, 43, 0, 60, 0, 109, 63, 0, 221, 171, 87, 49, 87, 49, 0, 60, 0, 109, 63, 0, 221, 43, 87, 49, 87, 49, 0, 60, 0, 109, 63, 0, 221, 171, 76, 51, 210, 43, 0, 60, 0, 127, 0, 0, 221, 43, 76, 51, 210, 43, 0, 60, 0, 127, 0, 0, 221, 43, 76, 51, 210, 171, 0, 60, 0, 127, 0, 0, 221, 171, 76, 51, 210, 171, 0, 60, 0, 127, 0, 0, 221, 43, 76, 179, 210, 171, 0, 60, 0, 147, 193, 0, 221, 171, 76, 179, 210, 171, 0, 60, 0, 147, 193, 0, 221, 171, 87, 177, 87, 177, 0, 60, 0, 147, 193, 0, 221, 43, 87, 177, 87, 177, 0, 60, 0, 147, 193, 0, 221, 43, 87, 49, 87, 49, 0, 60, 0, 63, 109, 0, 221, 171, 87, 49, 87, 49, 0, 60, 0, 63, 109, 0, 221, 171, 210, 43, 76, 51, 0, 60, 0, 63, 109, 0, 221, 43, 210, 43, 76, 51, 0, 60, 0, 63, 109, 0 ),
"array_index_data": PoolByteArray( 0, 0, 2, 0, 1, 0, 1, 0, 4, 0, 3, 0, 4, 0, 6, 0, 5, 0, 6, 0, 8, 0, 7, 0, 8, 0, 10, 0, 9, 0, 10, 0, 2, 0, 11, 0, 1, 0, 2, 0, 4, 0, 4, 0, 8, 0, 6, 0, 8, 0, 2, 0, 10, 0, 4, 0, 2, 0, 8, 0, 12, 0, 14, 0, 13, 0, 13, 0, 16, 0, 15, 0, 16, 0, 18, 0, 17, 0, 18, 0, 20, 0, 19, 0, 20, 0, 22, 0, 21, 0, 22, 0, 14, 0, 23, 0, 13, 0, 14, 0, 16, 0, 16, 0, 20, 0, 18, 0, 20, 0, 14, 0, 22, 0, 16, 0, 14, 0, 20, 0, 24, 0, 26, 0, 25, 0, 24, 0, 27, 0, 26, 0, 28, 0, 30, 0, 29, 0, 28, 0, 31, 0, 30, 0, 32, 0, 34, 0, 33, 0, 32, 0, 35, 0, 34, 0, 36, 0, 38, 0, 37, 0, 36, 0, 39, 0, 38, 0, 40, 0, 42, 0, 41, 0, 40, 0, 43, 0, 42, 0, 44, 0, 46, 0, 45, 0, 44, 0, 47, 0, 46, 0, 48, 0, 50, 0, 49, 0, 48, 0, 51, 0, 50, 0, 52, 0, 54, 0, 53, 0, 52, 0, 55, 0, 54, 0, 56, 0, 58, 0, 57, 0, 56, 0, 59, 0, 58, 0, 60, 0, 62, 0, 61, 0, 60, 0, 63, 0, 62, 0, 64, 0, 66, 0, 65, 0, 64, 0, 67, 0, 66, 0, 68, 0, 70, 0, 69, 0, 68, 0, 71, 0, 70, 0 ),
"blend_shape_data": [  ],
"format": 98051,
"index_count": 132,
"material": ExtResource( 3 ),
"name": "Material.001",
"primitive": 4,
"skeleton_aabb": [  ],
"vertex_count": 72
}

[sub_resource type="BoxShape" id=6]

extents = Vector3( 0.669599, 0.520797, 1.19437 )

[node name="Spatial" type="Spatial"]

_import_path = NodePath(".")
__meta__ = {
"__editor_plugin_screen__": "3D"
}

[node name="TRAILER" type="VehicleBody" parent="." index="0"]

transform = Transform( 1, 0, 0, 0, 1, 0, 0, 0, 1, -0.00169557, 0.637902, -3.671 )
input_ray_pickable = true
input_capture_on_drag = false
collision_layer = 1
collision_mask = 1
mode = 0
mass = 10.2041
friction = 0.0
bounce = 0.0
gravity_scale = 1.0
custom_integrator = false
continuous_cd = false
contacts_reported = 0
contact_monitor = false
sleeping = false
can_sleep = true
axis_lock_linear_x = false
axis_lock_linear_y = false
axis_lock_linear_z = false
axis_lock_angular_x = false
axis_lock_angular_y = false
axis_lock_angular_z = false
linear_velocity = Vector3( 0, 0, 0 )
linear_damp = -1.0
angular_velocity = Vector3( 0, 0, 0 )
angular_damp = -1.0
engine_force = 0.0
brake = 0.0
steering = 0.0
script = ExtResource( 1 )

[node name="Spatial" parent="TRAILER" index="0" instance=ExtResource( 2 )]

transform = Transform( -1, 0, -8.74228e-08, 0, 1, 0, 8.74228e-08, 0, -1, 1.63661, -0.334463, -0.724131 )

[node name="Spatial2" parent="TRAILER" index="1" instance=ExtResource( 2 )]

transform = Transform( -1, 0, -8.74228e-08, 0, 1, 0, 8.74228e-08, 0, -1, -1.4175, -0.334463, -0.724131 )

[node name="twheel2" type="VehicleWheel" parent="TRAILER" index="2"]

transform = Transform( 1, 0, 0, 0, 1, -1.49012e-08, 0, 0, 1, 1.39185, -0.402732, 0.00304341 )
use_as_traction = false
use_as_steering = false
wheel_roll_influence = 0.4
wheel_radius = 0.4
wheel_rest_length = 0.15
wheel_friction_slip = 1.0
suspension_travel = 10.0
suspension_stiffness = 28.0
suspension_max_force = 6000.0
damping_compression = 0.88
damping_relaxation = 0.88
_sections_unfolded = [ "Suspension", "Transform" ]

[node name="twheel2" type="MeshInstance" parent="TRAILER/twheel2" index="0"]

_import_path = NodePath("TRAILER-vehicle/twheel2-wheel")
visible = false
layers = 1
material_override = null
cast_shadow = 1
extra_cull_margin = 0.0
use_in_baked_light = true
lod_min_distance = 0.0
lod_min_hysteresis = 0.0
lod_max_distance = 0.0
lod_max_hysteresis = 0.0
mesh = SubResource( 1 )
skeleton = NodePath("..")
material/0 = null

[node name="twheel4" type="VehicleWheel" parent="TRAILER" index="3"]

transform = Transform( 1, 0, 0, 0, 1, -1.49012e-08, 0, 0, 1, -1.39185, -0.402732, 0.00304294 )
use_as_traction = false
use_as_steering = false
wheel_roll_influence = 0.4
wheel_radius = 0.4
wheel_rest_length = 0.15
wheel_friction_slip = 1.0
suspension_travel = 10.0
suspension_stiffness = 20.0
suspension_max_force = 6000.0
damping_compression = 0.88
damping_relaxation = 0.88
_sections_unfolded = [ "Suspension", "Transform" ]

[node name="twheel4" type="MeshInstance" parent="TRAILER/twheel4" index="0"]

_import_path = NodePath("TRAILER-vehicle/twheel4-wheel")
visible = false
layers = 1
material_override = null
cast_shadow = 1
extra_cull_margin = 0.0
use_in_baked_light = true
lod_min_distance = 0.0
lod_min_hysteresis = 0.0
lod_max_distance = 0.0
lod_max_hysteresis = 0.0
mesh = SubResource( 2 )
skeleton = NodePath("..")
material/0 = null

[node name="TRAILER" type="MeshInstance" parent="TRAILER" index="4"]

_import_path = NodePath("TRAILER-vehicle")
layers = 1
material_override = null
cast_shadow = 1
extra_cull_margin = 0.0
use_in_baked_light = true
lod_min_distance = 0.0
lod_min_hysteresis = 0.0
lod_max_distance = 0.0
lod_max_hysteresis = 0.0
mesh = null
skeleton = NodePath("..")

[node name="Scene Root" parent="TRAILER/TRAILER" index="0" instance=ExtResource( 4 )]

transform = Transform( 1, 0, 0, 0, 1, 0, 0, 0, 1, 0, -0.575252, 0.229558 )

[node name="Cannon" type="Spatial" parent="TRAILER/TRAILER" index="1"]

transform = Transform( 1, 0, 0, 0, 1, 0, 0, 0, 1, 0, 2.71331, 0.250604 )
script = ExtResource( 5 )
projectileScene = ExtResource( 6 )
recoilScale = 0.05
reloadTime = 0.5

[node name="Scene Root" parent="TRAILER/TRAILER/Cannon" index="0" instance=ExtResource( 7 )]

_sections_unfolded = [ "Transform" ]

[node name="AnimationPlayer" type="AnimationPlayer" parent="TRAILER/TRAILER/Cannon/Scene Root" index="1"]

root_node = NodePath("..")
autoplay = ""
playback_process_mode = 1
playback_default_blend_time = 0.0
playback_speed = 1.0
anims/ShootCannon = SubResource( 3 )
blend_times = [  ]

[node name="Muzzle" type="Spatial" parent="TRAILER/TRAILER/Cannon" index="1"]

transform = Transform( -4.37114e-08, 0, 1, 0, 1, 0, -1, 0, -4.37114e-08, 0, 0.799735, -1.20834 )

[node name="Particles" parent="TRAILER/TRAILER/Cannon/Muzzle" index="0" instance=ExtResource( 8 )]

transform = Transform( -0.2, 0, -1.74846e-08, 0, 0.2, 0, 1.74846e-08, 0, -0.2, 7.41157e-11, 0, 0 )
_sections_unfolded = [ "Transform" ]

[node name="Sound" type="AudioStreamPlayer3D" parent="TRAILER/TRAILER/Cannon/Muzzle" index="1"]

stream = ExtResource( 9 )
attenuation_model = 0
unit_db = 0.0
unit_size = 60.0
max_db = 3.0
pitch_scale = 2.0
autoplay = false
max_distance = 0.0
out_of_range_mode = 0
bus = "Master"
area_mask = 1
emission_angle_enabled = false
emission_angle_degrees = 45.0
emission_angle_filter_attenuation_db = -12.0
attenuation_filter_cutoff_hz = 5000.0
attenuation_filter_db = -24.0
doppler_tracking = 2
_sections_unfolded = [ "Doppler" ]

[node name="CollisionShape 2" type="CollisionShape" parent="TRAILER" index="5"]

transform = Transform( 2.19024, 0, 0, 0, 2.03993, 0, 0, 0, 1, 0, 1.16875, -0.0335202 )
shape = SubResource( 4 )
disabled = false

[node name="BODY" type="VehicleBody" parent="." index="1"]

transform = Transform( 1, 0, 0, 0, 1, 0, 0, 0, 1, -0.00169557, 0.222867, 1.76674 )
input_ray_pickable = true
input_capture_on_drag = false
collision_layer = 1
collision_mask = 1
mode = 0
mass = 40.0
friction = 1.0
bounce = 0.0
gravity_scale = 1.0
custom_integrator = false
continuous_cd = false
contacts_reported = 0
contact_monitor = false
sleeping = false
can_sleep = true
axis_lock_linear_x = false
axis_lock_linear_y = false
axis_lock_linear_z = false
axis_lock_angular_x = false
axis_lock_angular_y = false
axis_lock_angular_z = false
linear_velocity = Vector3( 0, 0, 0 )
linear_damp = -1.0
angular_velocity = Vector3( 0, 0, 0 )
angular_damp = -1.0
engine_force = 200.0
brake = 0.0
steering = 0.0
script = ExtResource( 10 )
engine_force_value = 80

[node name="wheel1" type="VehicleWheel" parent="BODY" index="0"]

editor/display_folded = true
transform = Transform( 1, 0, 0, 0, 1, 0, 0, 0, 1, 1.11534, 0.000773743, 2.06771 )
use_as_traction = true
use_as_steering = true
wheel_roll_influence = 0.4
wheel_radius = 0.23
wheel_rest_length = 0.15
wheel_friction_slip = 5.0
suspension_travel = 5.0
suspension_stiffness = 28.0
suspension_max_force = 6000.0
damping_compression = 0.88
damping_relaxation = 0.88
_sections_unfolded = [ "Wheel" ]

[node name="Scene Root" parent="BODY/wheel1" index="0" instance=ExtResource( 11 )]

transform = Transform( -0.996195, 0, 0.0871556, 0, 1, 0, -0.0871556, 0, -0.996195, 5.96046e-08, 0, 0 )

[node name="wheel2" type="VehicleWheel" parent="BODY" index="1"]

transform = Transform( 1, 0, 0, 0, 1, 0, 0, 0, 1, 1.11185, 0.000773743, -1.1093 )
use_as_traction = true
use_as_steering = false
wheel_roll_influence = 0.4
wheel_radius = 0.23
wheel_rest_length = 0.15
wheel_friction_slip = 3.0
suspension_travel = 5.0
suspension_stiffness = 28.0
suspension_max_force = 6000.0
damping_compression = 0.88
damping_relaxation = 0.88
_sections_unfolded = [ "Transform" ]

[node name="wheel3" type="VehicleWheel" parent="BODY" index="2"]

transform = Transform( 1, 0, 0, 0, 1, 0, 0, 0, 1, -1.11534, 0.000774, 2.06771 )
use_as_traction = true
use_as_steering = true
wheel_roll_influence = 0.4
wheel_radius = 0.23
wheel_rest_length = 0.15
wheel_friction_slip = 5.0
suspension_travel = 5.0
suspension_stiffness = 28.0
suspension_max_force = 6000.0
damping_compression = 0.88
damping_relaxation = 0.88
_sections_unfolded = [ "Transform", "Wheel" ]

[node name="Scene Root" parent="BODY/wheel3" index="0" instance=ExtResource( 11 )]

[node name="wheel4" type="VehicleWheel" parent="BODY" index="3"]

editor/display_folded = true
transform = Transform( 1, 0, 0, 0, 1, 0, 0, 0, 1, -1.11185, 0.000774, -1.1093 )
use_as_traction = true
use_as_steering = false
wheel_roll_influence = 0.4
wheel_radius = 0.23
wheel_rest_length = 0.15
wheel_friction_slip = 3.0
suspension_travel = 5.0
suspension_stiffness = 28.0
suspension_max_force = 6000.0
damping_compression = 0.88
damping_relaxation = 0.88
_sections_unfolded = [ "Transform" ]

[node name="wheel4" type="MeshInstance" parent="BODY/wheel4" index="0"]

_import_path = NodePath("BODY-vehicle/wheel4-wheel")
layers = 1
material_override = null
cast_shadow = 1
extra_cull_margin = 0.0
use_in_baked_light = true
lod_min_distance = 0.0
lod_min_hysteresis = 0.0
lod_max_distance = 0.0
lod_max_hysteresis = 0.0
mesh = SubResource( 5 )
skeleton = NodePath("..")
material/0 = null

[node name="BODY" type="MeshInstance" parent="BODY" index="4"]

_import_path = NodePath("BODY-vehicle")
transform = Transform( 1, 0, 0, 0, 1, 0, 0, 0, 1, 0, 0, -1.85699 )
layers = 1
material_override = null
cast_shadow = 1
extra_cull_margin = 0.0
use_in_baked_light = true
lod_min_distance = 0.0
lod_min_hysteresis = 0.0
lod_max_distance = 0.0
lod_max_hysteresis = 0.0
mesh = null
skeleton = NodePath("..")

[node name="SpotLight" type="SpotLight" parent="BODY/BODY" index="0"]

transform = Transform( -1, -6.0224e-08, 8.56914e-08, -4.20619e-08, 0.980196, 0.198029, -9.59206e-08, 0.198029, -0.980196, 0.0569496, 1.258, 4.51727 )
layers = 1
light_color = Color( 1, 1, 1, 1 )
light_energy = 5.0
light_indirect_energy = 1.0
light_negative = false
light_specular = 1.0
light_bake_mode = 1
light_cull_mask = -1
shadow_enabled = true
shadow_color = Color( 0, 0, 0, 1 )
shadow_bias = 0.14
shadow_contact = 0.0
shadow_reverse_cull_face = false
editor_only = false
spot_range = 18.3871
spot_attenuation = 1.0
spot_angle = 32.9228
spot_angle_attenuation = 1.0
_sections_unfolded = [ "Spot" ]

[node name="Scene Root" parent="BODY/BODY" index="1" instance=ExtResource( 12 )]

transform = Transform( 1, 0, 0, 0, 1, 0, 0, 0, 1, 0, -0.217909, 1.93195 )

[node name="CollisionShape" type="CollisionShape" parent="BODY" index="5"]

transform = Transform( 1.74221, 0, 0, 0, 1.14245, 0, 0, 0, 2.15946, -0.000758171, 0.769549, 0.368788 )
shape = SubResource( 6 )
disabled = false

[node name="EngineSound" type="AudioStreamPlayer3D" parent="BODY" index="6"]

stream = ExtResource( 13 )
attenuation_model = 0
unit_db = 0.0
unit_size = 20.0
max_db = 3.0
pitch_scale = 0.72
autoplay = true
max_distance = 0.0
out_of_range_mode = 0
bus = "Master"
area_mask = 1
emission_angle_enabled = false
emission_angle_degrees = 45.0
emission_angle_filter_attenuation_db = -12.0
attenuation_filter_cutoff_hz = 5000.0
attenuation_filter_db = -24.0
doppler_tracking = 0

[node name="AnimationPlayer" type="AnimationPlayer" parent="." index="2"]

_import_path = NodePath("AnimationPlayer")
root_node = NodePath("..")
autoplay = ""
playback_process_mode = 1
playback_default_blend_time = 0.0
playback_speed = 1.0
blend_times = [  ]

[node name="PinJoint" type="ConeTwistJoint" parent="." index="3"]

transform = Transform( -4.37114e-08, -1, 0, 1, -4.37114e-08, 0, 0, 0, 1, -0.00151104, 0.707415, -1.09275 )
nodes/node_a = NodePath("../TRAILER")
nodes/node_b = NodePath("../BODY")
solver/priority = 1
collision/exclude_nodes = true
swing_span = 60.0
twist_span = 90.0
bias = 0.3
softness = 0.8
relaxation = 1.0


[editable path="TRAILER/TRAILER/Cannon/Scene Root"]
